# Blender v2.79 (sub 0) OBJ File: 'cloud_model.blend'
# www.blender.org
mtllib cloud_model.mtl
o Mesh19_default_group_G_0_skp4F91_1_Model.001
v 1.232318 -0.131392 -1.382198
v 1.584179 -0.003215 -0.970019
v 1.584179 -0.131392 -0.970019
v 1.232318 -0.003215 -1.382198
v 1.390655 0.145070 -0.887080
v 1.136813 0.145070 -1.181135
v 0.744740 -0.003215 -1.538022
v 0.744740 -0.131392 -1.538022
v 0.707040 -0.259570 -1.460110
v 1.169486 -0.259570 -1.311826
v 1.503753 -0.259570 -0.922266
v 1.662091 -0.131392 -0.502546
v 1.662091 -0.003215 -0.502546
v 1.445948 0.145070 -0.550299
v 0.827678 0.230521 -0.691043
v 0.784952 0.145070 -1.294233
v 0.257161 -0.003215 -1.362092
v 0.257161 -0.131392 -1.362092
v 0.242082 -0.259570 -1.294233
v -1.203061 -0.259570 -0.680990
v 1.576639 -0.259570 -0.477414
v 1.393169 -0.259570 -0.087854
v 1.466054 -0.131392 -0.092880
v 1.466054 -0.003215 -0.092880
v 1.305204 0.145070 -0.253731
v 0.887997 0.150096 -0.130579
v 0.420525 0.145070 -0.263784
v 0.264701 0.145070 -0.773982
v 0.433092 0.145070 -1.168568
v 0.151603 0.074697 -0.796601
v 0.061125 0.089777 -1.188675
v -0.293249 0.089777 -1.382198
v -0.250523 -0.003215 -1.636041
v -0.250523 -0.131392 -1.636041
v -0.240470 -0.259570 -1.553102
v -0.743128 -0.259570 -1.492783
v -1.092476 -0.259570 -1.181135
v -1.150281 -0.131392 -1.243967
v -0.780828 -0.131392 -1.570695
v -0.780828 -0.003215 -1.570695
v -1.150281 -0.003215 -1.243967
v -1.265893 -0.131392 -0.716176
v -1.592621 -0.259570 -0.422121
v -1.537328 -0.259570 0.542982
v -1.092476 -0.259570 0.728966
v -1.617754 -0.131392 0.570629
v -1.833896 -0.131392 0.045351
v -1.740905 -0.259570 0.042838
v -1.675559 -0.131392 -0.444741
v -1.265893 -0.003215 -0.716176
v -0.921572 0.089777 -1.108250
v -0.665216 0.089777 -1.336959
v -0.428967 0.160149 -0.794088
v -1.004511 0.089777 -0.738796
v -0.996971 0.079724 -0.610618
v -0.853713 0.089777 -0.540246
v -0.725535 0.099830 -0.497520
v -0.645110 0.102344 -0.419608
v -0.763235 0.155123 -0.434688
v -1.240760 0.152609 -0.572919
v -1.675559 -0.003215 -0.444741
v -1.833896 -0.003215 0.045351
v -1.617754 -0.003215 0.570629
v -1.150281 -0.131392 0.766665
v -1.074883 -0.259570 1.153712
v -0.833607 -0.259570 1.543272
v -1.130175 -0.131393 1.216544
v -0.876333 -0.131393 1.626211
v -0.285709 -0.259570 1.784548
v 0.242082 -0.259570 1.656370
v -0.300789 -0.131393 1.877540
v -0.876333 -0.003215 1.626211
v -1.130175 -0.003215 1.216544
v -1.150281 -0.003215 0.766665
v -1.522249 0.152609 0.460044
v -1.693152 0.152609 0.037811
v -1.570001 0.152609 -0.354262
v -1.074883 0.248114 0.010165
v -0.484259 0.152609 -0.019995
v -0.557145 0.089777 -0.309023
v -0.242984 0.104857 -0.366829
v 0.136523 0.089777 -0.660884
v 0.068664 0.119937 -0.402015
v -0.051973 0.222982 0.000112
v -0.383728 0.165176 0.281600
v -0.735588 0.157636 0.419831
v -1.147768 0.152609 0.615868
v -0.625004 0.135016 0.407265
v -0.127372 0.162663 0.537956
v -0.119832 0.200362 0.437424
v 0.242082 0.170202 0.314273
v 0.415499 0.162663 0.015191
v 0.335073 0.180256 -0.218545
v 0.543676 0.117423 0.017705
v 0.634155 0.127476 -0.032561
v 0.968423 0.119937 -0.080314
v 1.063928 0.117423 -0.077800
v 1.011148 0.200362 0.527903
v 0.297374 0.117423 0.424858
v 0.274754 0.104857 0.623408
v 0.294861 0.140043 0.756612
v 0.355180 0.117423 0.844577
v 0.609022 0.117423 1.156225
v 0.511004 -0.003215 1.312049
v 0.350153 0.135016 1.251730
v -0.285709 0.235548 1.005428
v -0.976864 0.135016 0.814418
v -0.961785 0.135016 1.173818
v -0.758208 0.135016 1.500546
v -0.300789 -0.003215 1.877540
v -0.298276 0.135016 1.704123
v 0.146577 0.135016 1.596051
v 0.257161 -0.003215 1.741822
v 0.257161 -0.131393 1.741822
v 0.483357 -0.259570 1.246704
v 0.511004 -0.131393 1.312049
v 1.003609 -0.259570 1.264297
v 1.468567 -0.259570 0.912436
v 1.058901 -0.131393 1.332156
v 1.058901 -0.003215 1.332156
v 1.546479 -0.131392 0.960189
v 1.596745 -0.259570 0.264007
v 1.682197 -0.131392 0.279087
v 1.682197 -0.003215 0.279087
v 1.546479 0.117423 0.329353
v 1.375576 0.117423 0.032784
v 1.438408 0.117423 0.874737
v 1.048848 0.117423 1.171305
v 1.546479 -0.003215 0.960189
vt 1.568883 1.730204
vt 1.916368 1.431331
vt 1.855600 1.394094
vt 1.616154 1.783262
vt 1.819591 1.404140
vt 1.590533 1.669674
vt 1.200143 1.916309
vt 1.171575 1.857269
vt 1.116067 1.742510
vt 1.476682 1.626795
vt 1.737345 1.322798
vt 1.919087 1.012898
vt 1.982845 1.032189
vt 1.869485 1.100024
vt 1.337222 1.248540
vt 1.273027 1.771802
vt 0.784131 1.766095
vt 0.774267 1.713808
vt 0.753492 1.613066
vt -0.373432 1.134517
vt 1.794181 0.975654
vt 1.651110 0.671657
vt 1.759345 0.678838
vt 1.815583 0.682404
vt 1.742482 0.832221
vt 1.367579 0.721245
vt 0.944182 0.841299
vt 0.803572 1.302011
vt 0.955522 1.658326
vt 0.697877 1.303298
vt 0.618713 1.653914
vt 0.305663 1.824993
vt 0.350965 2.000000
vt 0.360575 1.937197
vt 0.377197 1.815077
vt -0.014776 1.768006
vt -0.287197 1.524809
vt -0.372602 1.617484
vt -0.071549 1.883912
vt -0.101501 1.944207
vt -0.416726 1.665236
vt -0.466809 1.187101
vt -0.677211 0.932506
vt -0.634094 0.179379
vt -0.287197 0.034245
vt -0.753526 0.137785
vt -0.929652 0.566119
vt -0.792843 0.569671
vt -0.800630 0.965760
vt -0.515368 1.214592
vt -0.249391 1.582817
vt -0.022929 1.785001
vt 0.175352 1.324392
vt -0.322658 1.256212
vt -0.312644 1.140844
vt -0.189445 1.080689
vt -0.078674 1.044606
vt -0.007904 0.975824
vt -0.126698 0.997165
vt -0.558187 1.121969
vt -0.864904 0.982833
vt -1.000000 0.564378
vt -0.815583 0.115880
vt -0.372602 -0.022072
vt -0.273478 -0.297209
vt -0.085331 -0.601206
vt -0.356218 -0.388923
vt -0.149372 -0.722982
vt 0.341920 -0.789488
vt 0.753492 -0.689463
vt 0.319615 -0.927926
vt -0.182988 -0.785408
vt -0.399571 -0.435622
vt -0.416726 -0.051502
vt -0.812937 0.186457
vt -0.967608 0.568856
vt -0.856154 0.923941
vt -0.445657 0.593538
vt 0.126455 0.621208
vt 0.072540 0.876283
vt 0.348829 0.929255
vt 0.685320 1.187335
vt 0.626078 0.962613
vt 0.516354 0.602996
vt 0.215729 0.346811
vt -0.102307 0.222130
vt -0.474028 0.045333
vt 0.002930 0.236767
vt 0.448990 0.113979
vt 0.454211 0.199433
vt 0.785315 0.316511
vt 0.942226 0.589288
vt 0.871263 0.803182
vt 1.050097 0.587282
vt 1.133070 0.632303
vt 1.430136 0.674923
vt 1.514564 0.672608
vt 1.497164 0.115937
vt 0.830205 0.223526
vt 0.808831 0.048816
vt 0.830269 -0.078795
vt 0.881812 -0.151457
vt 1.108436 -0.429888
vt 1.000715 -0.517167
vt 0.879452 -0.522825
vt 0.297513 -0.337878
vt -0.313340 -0.129465
vt -0.299786 -0.452744
vt -0.116801 -0.746634
vt 0.308077 -1.000000
vt 0.296610 -0.929750
vt 0.696467 -0.832540
vt 0.784131 -0.884120
vt 0.774267 -0.817256
vt 0.941639 -0.369777
vt 0.981113 -0.466801
vt 1.347331 -0.383505
vt 1.709907 -0.108927
vt 1.427572 -0.483197
vt 1.468191 -0.534335
vt 1.824880 -0.179879
vt 1.809860 0.397080
vt 1.935471 0.375521
vt 2.000000 0.364807
vt 1.945374 0.308852
vt 1.792796 0.573810
vt 1.848891 -0.178402
vt 1.501102 -0.443360
vt 1.884203 -0.216738
vn 0.7606 0.0000 -0.6493
vn 0.4515 0.8048 -0.3854
vn 0.4509 0.8051 -0.3853
vn 0.4466 0.8078 -0.3847
vn 0.4455 0.8084 -0.3846
vn 0.1698 0.8299 -0.5314
vn 0.1706 0.8294 -0.5320
vn 0.1709 0.8292 -0.5322
vn 0.3044 0.0000 -0.9525
vn 0.2531 -0.5562 -0.7916
vn 0.2533 -0.5575 -0.7906
vn 0.2531 -0.5558 -0.7919
vn 0.2534 -0.5580 -0.7902
vn 0.6145 -0.5892 -0.5246
vn 0.6149 -0.5880 -0.5255
vn 0.6159 -0.5849 -0.5278
vn 0.6162 -0.5837 -0.5288
vn 0.8156 -0.5624 -0.1359
vn 0.8149 -0.5635 -0.1353
vn 0.8131 -0.5665 -0.1337
vn 0.9864 0.0000 -0.1644
vn 0.5775 0.8107 -0.0962
vn 0.5776 0.8106 -0.0962
vn 0.5791 0.8097 -0.0953
vn 0.5794 0.8094 -0.0951
vn 0.1421 0.9896 -0.0233
vn 0.1153 0.9883 -0.0996
vn 0.0461 0.9886 -0.1433
vn 0.1711 0.8290 -0.5325
vn -0.1762 0.8524 -0.4924
vn -0.1768 0.8536 -0.4900
vn -0.1768 0.8535 -0.4902
vn -0.3394 0.0000 -0.9406
vn -0.3076 -0.4189 -0.8544
vn -0.3048 -0.4255 -0.8521
vn -0.3086 -0.4164 -0.8552
vn -0.3037 -0.4281 -0.8512
vn 0.0000 -1.0000 -0.0000
vn 0.8099 -0.4456 0.3814
vn 0.8014 -0.4591 0.3835
vn 0.9020 0.0000 0.4317
vn 0.5112 0.8239 0.2446
vn 0.5136 0.8226 0.2441
vn 0.5113 0.8238 0.2446
vn 0.5141 0.8223 0.2440
vn 0.1236 0.9906 0.0586
vn 0.0522 0.9893 0.1363
vn -0.0526 0.9877 0.1474
vn -0.1568 0.9865 0.0479
vn -0.1411 0.9882 -0.0602
vn -0.0488 0.9894 -0.1367
vn -0.1760 0.8521 -0.4929
vn -0.4867 0.8485 -0.2077
vn -0.4865 0.8486 -0.2077
vn 0.3884 0.9199 -0.0542
vn 0.3969 0.9161 -0.0564
vn 0.3913 0.9186 -0.0550
vn 0.1693 0.9344 -0.3133
vn 0.1694 0.9353 -0.3108
vn 0.1694 0.9355 -0.3102
vn 0.1693 0.9343 -0.3138
vn 0.4749 0.0000 -0.8801
vn 0.4192 -0.4682 -0.7779
vn 0.4191 -0.4646 -0.7801
vn 0.4192 -0.4698 -0.7769
vn 0.4190 -0.4628 -0.7811
vn -0.8596 -0.4748 -0.1887
vn -0.8569 -0.4793 -0.1895
vn -0.8577 -0.4780 -0.1892
vn -0.5528 -0.5523 -0.6240
vn -0.5568 -0.5468 -0.6253
vn -0.5514 -0.5543 -0.6235
vn -0.5583 -0.5446 -0.6258
vn -0.1023 -0.5403 -0.8352
vn -0.1006 -0.5443 -0.8328
vn -0.1030 -0.5386 -0.8362
vn -0.0998 -0.5460 -0.8318
vn -0.1223 0.0000 -0.9925
vn -0.6625 0.0000 -0.7491
vn -0.9768 0.0000 -0.2140
vn -0.8604 -0.4735 -0.1885
vn -0.4936 -0.4497 -0.7444
vn -0.4950 -0.4472 -0.7450
vn -0.4946 -0.4479 -0.7448
vn -0.3532 -0.4063 0.8427
vn -0.3529 -0.4035 0.8442
vn -0.3530 -0.4043 0.8437
vn -0.7699 -0.5543 0.3161
vn -0.7673 -0.5597 0.3131
vn -0.7710 -0.5522 0.3173
vn -0.7661 -0.5619 0.3118
vn -0.7867 -0.5630 -0.2534
vn -0.7915 -0.5567 -0.2524
vn -0.7900 -0.5585 -0.2527
vn -0.4931 -0.4504 -0.7443
vn -0.5523 0.0000 -0.8336
vn -0.3396 0.9375 -0.0759
vn -0.3376 0.9384 -0.0740
vn -0.3379 0.9383 -0.0742
vn -0.2293 0.9387 -0.2574
vn -0.2296 0.9381 -0.2595
vn -0.2292 0.9388 -0.2570
vn -0.2296 0.9380 -0.2596
vn -0.0428 0.9355 -0.3507
vn -0.0429 0.9355 -0.3506
vn -0.0427 0.9354 -0.3510
vn -0.0431 0.9357 -0.3501
vn -0.0149 0.9924 -0.1222
vn -0.0827 0.9923 -0.0927
vn -0.1240 0.9919 -0.0278
vn -0.3401 0.9373 -0.0763
vn -0.3266 0.9406 0.0930
vn -0.1092 0.9906 0.0829
vn -0.1068 0.9909 0.0815
vn -0.1108 0.9903 0.0842
vn -0.1076 0.9908 0.0821
vn -0.1144 0.9896 0.0869
vn -0.1148 0.9896 0.0865
vn 0.4115 0.7924 -0.4504
vn 0.1403 0.7835 -0.6053
vn 0.2791 0.6909 -0.6669
vn 0.1573 0.8147 -0.5581
vn 0.0849 0.6669 -0.7403
vn -0.4198 0.6510 -0.6324
vn -0.4197 0.6501 -0.6335
vn -0.4197 0.6503 -0.6332
vn -0.9516 0.0000 -0.3074
vn -0.7853 -0.5647 -0.2537
vn -0.9248 0.0000 0.3805
vn -0.3867 0.0000 0.9222
vn -0.3532 -0.4070 0.8423
vn -0.9068 -0.4200 0.0376
vn -0.9075 -0.4183 0.0383
vn -0.9093 -0.4142 0.0400
vn -0.7210 -0.5299 0.4465
vn -0.7210 -0.5298 0.4466
vn -0.7211 -0.5295 0.4468
vn -0.3260 -0.5818 0.7451
vn -0.3261 -0.5878 0.7404
vn -0.3260 -0.5859 0.7419
vn 0.1957 -0.5602 0.8049
vn 0.1954 -0.5607 0.8046
vn 0.1955 -0.5605 0.8047
vn -0.3260 -0.5800 0.7466
vn -0.4002 0.0000 0.9164
vn -0.8500 0.0000 0.5267
vn -0.9990 0.0000 0.0446
vn -0.9100 -0.4125 0.0407
vn -0.2862 0.6681 0.6868
vn -0.2887 0.6654 0.6884
vn -0.2882 0.6659 0.6881
vn -0.7084 0.6432 0.2907
vn -0.7092 0.6418 0.2918
vn -0.7054 0.6483 0.2866
vn -0.7044 0.6500 0.2851
vn -0.7279 0.6464 -0.2286
vn -0.7347 0.6355 -0.2374
vn -0.4198 0.6514 -0.6321
vn -0.0903 0.9866 -0.1359
vn 0.0452 0.9837 -0.1740
vn 0.1540 0.9832 -0.0976
vn 0.4481 0.8434 -0.2964
vn -0.0822 0.9780 -0.1919
vn -0.0236 0.9909 0.1328
vn -0.0235 0.9910 0.1319
vn -0.0234 0.9911 0.1313
vn -0.0244 0.9900 0.1387
vn 0.1038 0.9911 0.0831
vn 0.1277 0.9916 -0.0182
vn 0.4002 0.9147 -0.0572
vn -0.5004 0.8526 -0.1503
vn -0.3202 0.9423 0.0978
vn -0.0231 0.9923 -0.1217
vn -0.0627 0.9893 -0.1317
vn -0.0768 0.9601 -0.2691
vn -0.1456 0.9613 -0.2337
vn -0.1612 0.9868 0.0126
vn -0.0334 0.9990 -0.0305
vn 0.1632 0.9832 0.0820
vn 0.0656 0.9844 0.1631
vn -0.0617 0.9870 0.1482
vn -0.1497 0.9869 0.0606
vn -0.1546 0.9868 -0.0486
vn -0.2856 0.6688 0.6864
vn 0.3173 0.6568 0.6840
vn 0.2244 0.7545 0.6167
vn 0.2245 0.7565 0.6142
vn 0.2244 0.7537 0.6178
vn 0.2246 0.7575 0.6130
vn -0.0783 0.9930 0.0880
vn -0.3054 0.8989 0.3142
vn -0.1484 0.9885 0.0281
vn 0.1057 0.9921 0.0677
vn 0.1263 0.9908 0.0482
vn 0.1269 0.9914 0.0309
vn 0.3333 0.9418 -0.0438
vn 0.3517 0.9340 -0.0621
vn -0.0449 0.9921 0.1170
vn -0.0451 0.9921 0.1172
vn -0.0437 0.9923 0.1159
vn 0.0798 0.9059 0.4158
vn 0.1187 0.9237 0.3643
vn 0.0210 0.9828 0.1833
vn 0.0296 0.9907 -0.1331
vn -0.0355 0.9911 -0.1286
vn 0.0653 0.9493 0.3075
vn -0.1060 0.9923 -0.0641
vn 0.3856 0.8927 0.2333
vn 0.3254 0.9310 0.1652
vn 0.1931 0.9195 0.3423
vn 0.1925 0.9140 0.3572
vn 0.1258 0.9891 0.0769
vn 0.1943 0.9408 -0.2778
vn 0.6696 0.6869 -0.2825
vn -0.2438 0.9693 0.0336
vn -0.1177 0.9929 0.0162
vn -0.0901 0.9932 0.0734
vn -0.4411 0.8224 0.3593
vn 0.6568 0.7536 -0.0245
vn 0.3950 0.9180 -0.0348
vn 0.1591 0.9872 -0.0077
vn 0.1128 0.9869 -0.1157
vn -0.0132 0.9873 -0.1584
vn -0.1160 0.9882 -0.1003
vn -0.4904 0.7616 -0.4238
vn -0.6280 0.7778 0.0267
vn -0.6275 0.7782 0.0263
vn -0.6297 0.7764 0.0279
vn -0.1456 0.9893 0.0061
vn -0.1273 0.9887 0.0793
vn -0.5417 0.7698 0.3375
vn -0.5423 0.7694 0.3375
vn -0.5443 0.7680 0.3375
vn -0.5446 0.7678 0.3375
vn -0.6300 0.7761 0.0282
vn -0.2603 0.7606 0.5947
vn -0.2638 0.7571 0.5976
vn -0.2594 0.7616 0.5939
vn -0.2650 0.7559 0.5987
vn -0.0624 0.9880 0.1410
vn 0.0347 0.9891 0.1429
vn 0.1272 0.9890 0.0752
vn 0.5446 0.7745 0.3219
vn 0.5447 0.7743 0.3220
vn 0.5446 0.7744 0.3219
vn 0.5445 0.7747 0.3216
vn 0.1502 0.7718 0.6178
vn 0.1501 0.7718 0.6179
vn 0.1501 0.7717 0.6180
vn 0.1502 0.7720 0.6176
vn 0.2364 0.0000 0.9717
vn 0.1958 -0.5598 0.8051
vn 0.7883 -0.4034 0.4646
vn 0.7871 -0.4057 0.4646
vn 0.7888 -0.4025 0.4646
vn 0.7867 -0.4065 0.4646
vn -0.0321 -0.4548 0.8900
vn -0.0302 -0.4488 0.8931
vn -0.0308 -0.4507 0.8921
vn 0.5035 -0.5560 0.6613
vn 0.4984 -0.5637 0.6586
vn 0.5000 -0.5613 0.6595
vn -0.0326 -0.4566 0.8891
vn -0.0367 0.0000 0.9993
vn 0.8610 0.0000 0.5086
vn 0.6065 0.0000 0.7951
vn 0.5051 -0.5537 0.6621
vn 0.8147 -0.5569 0.1614
vn 0.8130 -0.5594 0.1617
vn 0.8155 -0.5558 0.1612
vn 0.8122 -0.5605 0.1618
vn 0.7688 -0.4590 -0.4452
vn 0.7696 -0.4562 -0.4468
vn 0.7685 -0.4600 -0.4447
vn 0.7698 -0.4553 -0.4473
vn 0.8646 0.0000 -0.5024
vn 0.5584 0.7634 -0.3245
vn 0.5591 0.7630 -0.3245
vn 0.5621 0.7608 -0.3244
vn 0.5630 0.7602 -0.3244
vn 0.2107 0.7765 -0.5938
vn 0.2666 0.8267 0.4955
vn 0.0467 0.9902 -0.1315
vn 0.1263 0.9893 -0.0728
vn 0.1648 0.9858 0.0327
vn 0.0928 0.9882 0.1219
vn -0.0044 0.9918 0.1281
vn -0.0218 0.7976 0.6028
vn -0.0206 0.7992 0.6007
vn -0.0209 0.7988 0.6012
vn 0.4059 0.7428 0.5324
vn 0.4061 0.7421 0.5332
vn 0.4059 0.7431 0.5320
vn 0.4062 0.7418 0.5336
vn 0.6872 0.7135 0.1368
vn 0.6863 0.7144 0.1362
vn 0.6876 0.7130 0.1370
vn 0.6858 0.7149 0.1359
vn 0.9807 0.0000 0.1954
vn -0.0221 0.7972 0.6033
vn 0.1182 0.8796 -0.4608
vn -0.0399 0.9650 -0.2593
vn 0.0576 0.9927 -0.1055
vn 0.4214 0.8757 -0.2357
vn 0.8124 -0.5677 -0.1331
g Mesh19_default_group_G_0_skp4F91_1_Model.001_Mesh19_default_group_G_0_skp4F91_1_Model.001_Cloud
usemtl Cloud
s 1
f 1/1/1 2/2/1 3/3/1
f 4/4/1 2/2/1 1/1/1
f 2/2/2 4/4/3 5/5/4
f 5/5/4 4/4/3 6/6/5
f 4/4/6 7/7/7 6/6/8
f 4/4/9 8/8/9 7/7/9
f 4/4/9 1/1/9 8/8/9
f 1/1/10 9/9/11 8/8/12
f 1/1/10 10/10/13 9/9/11
f 1/1/14 3/3/15 10/10/16
f 10/10/16 3/3/15 11/11/17
f 3/3/18 12/12/19 11/11/20
f 3/3/21 13/13/21 12/12/21
f 2/2/21 13/13/21 3/3/21
f 13/13/22 2/2/23 14/14/24
f 2/2/23 5/5/25 14/14/24
f 14/14/26 5/5/26 15/15/26
f 5/5/27 6/6/27 15/15/27
f 6/6/28 16/16/28 15/15/28
f 6/6/8 7/7/7 16/16/29
f 16/16/30 7/7/31 17/17/32
f 7/7/33 18/18/33 17/17/33
f 7/7/33 8/8/33 18/18/33
f 8/8/34 19/19/35 18/18/36
f 8/8/34 9/9/37 19/19/35
f 9/9/38 20/20/38 19/19/38
f 10/10/38 20/20/38 9/9/38
f 11/11/38 20/20/38 10/10/38
f 21/21/38 20/20/38 11/11/38
f 21/21/38 22/22/38 20/20/38
f 21/21/39 23/23/39 22/22/39
f 12/12/40 23/23/40 21/21/40
f 12/12/41 24/24/41 23/23/41
f 13/13/41 24/24/41 12/12/41
f 13/13/42 14/14/43 24/24/44
f 24/24/44 14/14/43 25/25/45
f 14/14/46 15/15/46 25/25/46
f 25/25/47 15/15/47 26/26/47
f 26/26/48 15/15/48 27/27/48
f 15/15/49 28/28/49 27/27/49
f 15/15/50 29/29/50 28/28/50
f 15/15/51 16/16/51 29/29/51
f 16/16/30 17/17/32 29/29/52
f 29/29/53 17/17/53 28/28/54
f 28/28/54 17/17/53 30/30/54
f 17/17/55 31/31/56 30/30/57
f 17/17/58 32/32/59 31/31/60
f 17/17/58 33/33/61 32/32/59
f 17/17/62 34/34/62 33/33/62
f 17/17/62 18/18/62 34/34/62
f 18/18/63 35/35/64 34/34/65
f 18/18/63 19/19/66 35/35/64
f 19/19/38 20/20/38 35/35/38
f 35/35/38 20/20/38 36/36/38
f 36/36/38 20/20/38 37/37/38
f 38/38/67 37/37/68 20/20/69
f 39/39/70 37/37/71 38/38/72
f 39/39/70 36/36/73 37/37/71
f 34/34/74 36/36/75 39/39/76
f 34/34/74 35/35/77 36/36/75
f 33/33/78 34/34/78 39/39/78
f 33/33/78 39/39/78 40/40/78
f 40/40/79 39/39/79 38/38/79
f 40/40/79 38/38/79 41/41/79
f 38/38/80 42/42/80 41/41/80
f 38/38/67 20/20/69 42/42/81
f 42/42/82 20/20/83 43/43/84
f 20/20/38 44/44/38 43/43/38
f 45/45/38 44/44/38 20/20/38
f 46/46/85 44/44/86 45/45/87
f 47/47/88 44/44/89 46/46/90
f 48/48/91 44/44/89 47/47/88
f 44/44/38 48/48/38 43/43/38
f 49/49/92 43/43/93 48/48/94
f 42/42/82 43/43/84 49/49/95
f 50/50/96 42/42/96 49/49/96
f 41/41/80 42/42/80 50/50/80
f 51/51/97 41/41/98 50/50/99
f 52/52/100 41/41/101 51/51/102
f 52/52/100 40/40/103 41/41/101
f 32/32/104 40/40/105 52/52/106
f 33/33/107 40/40/105 32/32/104
f 32/32/108 52/52/108 53/53/108
f 53/53/109 52/52/109 51/51/109
f 53/53/110 51/51/110 54/54/110
f 51/51/97 50/50/99 54/54/111
f 55/55/112 54/54/112 50/50/112
f 56/56/113 54/54/114 55/55/115
f 57/57/116 54/54/114 56/56/113
f 53/53/117 54/54/114 57/57/116
f 53/53/117 57/57/116 58/58/118
f 58/58/119 57/57/119 59/59/119
f 57/57/120 56/56/120 59/59/120
f 59/59/121 56/56/121 55/55/121
f 59/59/122 55/55/122 60/60/122
f 60/60/123 55/55/123 50/50/123
f 60/60/124 50/50/125 61/61/126
f 50/50/96 49/49/96 61/61/96
f 49/49/127 47/47/127 61/61/127
f 49/49/92 48/48/94 47/47/128
f 61/61/127 47/47/127 62/62/127
f 47/47/129 46/46/129 62/62/129
f 62/62/129 46/46/129 63/63/129
f 63/63/130 46/46/130 64/64/130
f 46/46/85 45/45/87 64/64/131
f 45/45/132 65/65/133 64/64/134
f 66/66/38 65/65/38 45/45/38
f 65/65/135 66/66/136 67/67/136
f 67/67/136 66/66/136 68/68/137
f 68/68/138 66/66/139 69/69/140
f 69/69/38 66/66/38 20/20/38
f 66/66/38 45/45/38 20/20/38
f 70/70/38 69/69/38 20/20/38
f 71/71/141 69/69/142 70/70/143
f 68/68/138 69/69/140 71/71/144
f 72/72/145 68/68/145 71/71/145
f 73/73/146 68/68/146 72/72/146
f 67/67/146 68/68/146 73/73/146
f 74/74/147 67/67/147 73/73/147
f 64/64/147 67/67/147 74/74/147
f 64/64/134 65/65/133 67/67/148
f 63/63/130 64/64/130 74/74/130
f 75/75/149 63/63/150 74/74/151
f 62/62/152 63/63/153 75/75/154
f 76/76/155 62/62/152 75/75/154
f 77/77/156 62/62/156 76/76/156
f 61/61/157 62/62/157 77/77/157
f 60/60/124 61/61/126 77/77/158
f 78/78/159 60/60/159 77/77/159
f 59/59/160 60/60/160 78/78/160
f 79/79/161 59/59/161 78/78/161
f 79/79/162 80/80/162 59/59/162
f 81/81/163 80/80/163 79/79/163
f 81/81/164 58/58/165 80/80/166
f 81/81/164 53/53/167 58/58/165
f 82/82/168 53/53/168 81/81/168
f 82/82/169 31/31/169 53/53/169
f 30/30/57 31/31/56 82/82/170
f 28/28/171 30/30/171 82/82/171
f 27/27/172 28/28/172 82/82/172
f 27/27/173 82/82/173 83/83/173
f 82/82/174 81/81/174 83/83/174
f 83/83/175 81/81/175 84/84/175
f 84/84/176 81/81/176 79/79/176
f 84/84/177 79/79/177 85/85/177
f 85/85/178 79/79/178 86/86/178
f 79/79/179 78/78/179 86/86/179
f 86/86/180 78/78/180 87/87/180
f 78/78/181 75/75/181 87/87/181
f 78/78/182 76/76/182 75/75/182
f 78/78/183 77/77/183 76/76/183
f 75/75/149 74/74/151 87/87/184
f 86/86/185 87/87/185 74/74/185
f 88/88/186 86/86/187 74/74/188
f 85/85/189 86/86/187 88/88/186
f 89/89/190 85/85/190 88/88/190
f 90/90/191 85/85/191 89/89/191
f 84/84/192 85/85/192 90/90/192
f 91/91/193 84/84/193 90/90/193
f 92/92/194 84/84/194 91/91/194
f 92/92/195 93/93/195 84/84/195
f 94/94/196 93/93/196 92/92/196
f 94/94/197 27/27/197 93/93/197
f 95/95/198 27/27/198 94/94/199
f 26/26/200 27/27/198 95/95/198
f 96/96/201 26/26/201 95/95/201
f 25/25/202 26/26/202 96/96/202
f 25/25/203 96/96/203 97/97/203
f 97/97/204 96/96/204 98/98/204
f 98/98/205 96/96/205 94/94/205
f 96/96/206 95/95/206 94/94/206
f 98/98/207 94/94/207 99/99/207
f 94/94/208 91/91/208 99/99/208
f 94/94/209 92/92/209 91/91/209
f 99/99/210 91/91/210 90/90/210
f 99/99/211 90/90/211 89/89/211
f 99/99/212 89/89/212 100/100/212
f 101/101/213 100/100/213 89/89/213
f 102/102/214 100/100/214 101/101/214
f 102/102/215 99/99/215 100/100/215
f 98/98/216 99/99/216 102/102/216
f 98/98/217 102/102/217 103/103/217
f 103/103/218 102/102/218 104/104/218
f 104/104/219 102/102/219 105/105/219
f 102/102/220 101/101/220 105/105/220
f 105/105/221 101/101/221 106/106/221
f 101/101/222 89/89/222 106/106/222
f 89/89/223 88/88/223 106/106/223
f 106/106/224 88/88/224 107/107/224
f 88/88/225 74/74/225 107/107/225
f 108/108/226 107/107/227 74/74/228
f 106/106/229 107/107/229 108/108/229
f 106/106/230 108/108/230 109/109/230
f 109/109/231 108/108/232 72/72/233
f 72/72/233 108/108/232 73/73/234
f 108/108/226 74/74/228 73/73/235
f 110/110/236 109/109/237 72/72/238
f 111/111/239 109/109/237 110/110/236
f 106/106/240 109/109/240 111/111/240
f 112/112/241 106/106/241 111/111/241
f 105/105/242 106/106/242 112/112/242
f 104/104/243 105/105/244 112/112/245
f 104/104/243 112/112/245 113/113/246
f 113/113/247 112/112/248 111/111/249
f 113/113/247 111/111/249 110/110/250
f 110/110/251 114/114/251 113/113/251
f 110/110/251 71/71/251 114/114/251
f 72/72/145 71/71/145 110/110/145
f 71/71/141 70/70/143 114/114/252
f 115/115/253 114/114/254 70/70/255
f 115/115/253 116/116/256 114/114/254
f 116/116/257 115/115/258 117/117/259
f 117/117/38 115/115/38 20/20/38
f 115/115/38 70/70/38 20/20/38
f 118/118/38 117/117/38 20/20/38
f 119/119/260 117/117/261 118/118/262
f 116/116/257 117/117/259 119/119/263
f 104/104/264 116/116/264 119/119/264
f 104/104/265 113/113/265 116/116/265
f 116/116/265 113/113/265 114/114/265
f 104/104/264 119/119/264 120/120/264
f 120/120/266 119/119/266 121/121/266
f 119/119/260 118/118/262 121/121/267
f 122/122/268 121/121/269 118/118/270
f 122/122/268 123/123/271 121/121/269
f 22/22/272 123/123/273 122/122/274
f 23/23/275 123/123/273 22/22/272
f 23/23/276 124/124/276 123/123/276
f 24/24/276 124/124/276 23/23/276
f 124/124/277 24/24/278 125/125/279
f 125/125/279 24/24/278 126/126/280
f 24/24/281 97/97/281 126/126/281
f 24/24/282 25/25/282 97/97/282
f 126/126/283 97/97/283 98/98/283
f 125/125/284 126/126/284 98/98/284
f 125/125/285 98/98/285 127/127/285
f 127/127/286 98/98/286 128/128/286
f 128/128/287 98/98/287 103/103/287
f 120/120/288 128/128/289 103/103/290
f 129/129/291 128/128/292 120/120/293
f 129/129/291 127/127/294 128/128/292
f 124/124/295 127/127/296 129/129/297
f 124/124/295 125/125/298 127/127/296
f 124/124/299 129/129/299 123/123/299
f 123/123/299 129/129/299 121/121/299
f 120/120/266 121/121/266 129/129/266
f 120/120/288 103/103/290 104/104/300
f 122/122/38 20/20/38 22/22/38
f 122/122/38 118/118/38 20/20/38
f 27/27/301 83/83/301 93/93/301
f 93/93/302 83/83/302 84/84/302
f 31/31/303 32/32/303 53/53/303
f 80/80/304 58/58/304 59/59/304
f 11/11/20 12/12/19 21/21/305
